-------------------------------------------------------------------------------
Test set: StepDefs.RunCucumberTest
-------------------------------------------------------------------------------
Tests run: 1, Failures: 0, Errors: 1, Skipped: 0, Time elapsed: 0.002 s <<< FAILURE! - in StepDefs.RunCucumberTest
initializationError(StepDefs.RunCucumberTest)  Time elapsed: 0.002 s  <<< ERROR!
java.lang.IllegalArgumentException: Not a file or directory: /home/smazhar/javacucumberparallel/src/test/java/features

